{
    "notes": [
        {
            "id": 1,
            "title": "Hello World",
            "body": "This is my first note",
            "date": "2022-06-18"
        },
        {
            "id": 2,
            "title": "Hello World",
            "body": "This is my second note",
            "date": "2022-06-19"
        },
        {
            "id": 3,
            "title": "Hello World",
            "body": "This is my third note",
            "date": "2022-06-20"
        },
        {
            "title": "Simple Plan",
            "body": "Perfect lyric",
            "date": "2022-06-21",
            "id": 4
        }
    ]
}